// Gmsh project
ref1 = 2 ;
ref2 = 1 ;
Point(1) = {-50, -20, 0, ref1};
Point(2) = { 50, -20, 0, ref1};
Point(3) = { 50,  20, 0, ref1};
Point(4) = {-50,  20, 0, ref1};
Point(5) = {-30,   0, 0, ref1};
Point(6) = {-26,   0, 0, ref2};
Point(7) = {-30,   4, 0, ref2};
Point(8) = {-34,   0, 0, ref2};
Point(9) = {-30,  -4, 0, ref2};
Line(1) = {4, 1};
Line(2) = {2, 3};
Line(3) = {1, 2};
Line(4) = {4, 3};
Line Loop(5) = {-1, 4, -2, -3};
Circle(6) = {6, 5, 7};
Circle(7) = {7, 5, 8};
Circle(8) = {8, 5, 9};
Circle(9) = {9, 5, 6};
Line Loop(10) = {6, 7, 8, 9};
Plane Surface(11) = {5, 10};
Physical Line(1) = {1};
Physical Line(2) = {2};
Physical Line(3) = {3};
Physical Line(4) = {4};
Physical Line(10) = {6, 7, 8, 9};
Physical Surface(6) = {11};
